// Jest Snapshot v1, https://goo.gl/fbAQLP

exports[`matches with snapshot 1`] = `
<li
  onClick={[Function]}
>
  <a
    className="issue"
    href="#"
  >
    test: various small fixes
  </a>
</li>
`;
